IS415-GAA - Take Home Exercise 2
…
wm_q <- dengue_boundary %>% mutate(nb = st_contiguity(geometry),
                                        wt = st_weights(nb, 
                                                        style = "W"),
                                        .before=1)

Code

wm_q

Simple feature collection with 249 features and 4 fields
Geometry type: GEOMETRY
Dimension:     XY
Bounding box:  xmin: 120.0627 ymin: 22.89401 xmax: 120.2925 ymax: 23.09144
Geodetic CRS:  TWD97
# A tibble: 249 × 5
   nb        wt        VILLENG.x   total_cases                          geometry
 * <nb>      <list>    <chr>             <int>                     <POLYGON [°]>
 1 <int [5]> <dbl [5]> Andong Vil.          67 ((120.2164 23.0404, 120.2154 23.…
 2 <int [5]> <dbl [5]> Anfu Vil.           311 ((120.1932 23.0294, 120.1929 23.…
 3 <int [7]> <dbl [7]> Anhe Vil.            73 ((120.2258 23.04424, 120.2219 23…
 4 <int [3]> <dbl [3]> Ankang Vil.          97 ((120.2269 23.01413, 120.2274 23…
 5 <int [4]> <dbl [4]> Anqing Vil.         111 ((120.2113 23.04414, 120.2111 23…
 6 <int [3]> <dbl [3]> Anshun Vil.          34 ((120.2136 23.05601, 120.2136 23…
 7 <int [8]> <dbl [8]> Anxi Vil.           110 ((120.2123 23.03689, 120.212 23.…
 8 <int [5]> <dbl [5]> Bao'an Vil.          19 ((120.2304 22.93544, 120.2301 22…
 9 <int [6]> <dbl [6]> Beihua Vil.          82 ((120.2034 23.00257, 120.2032 23…
10 <int [4]> <dbl [4]> Beimen Vil.         249 ((120.2176 23.02032, 120.2173 23…
# ℹ 239 more rows
…
Code

gi_stars <- dengue_nb %>%
  group_by(`week`) %>%
  mutate(gi_star = local_gstar_perm(
    cases, nb, wt)) %>%
  unnest(gi_star)

The results of gi_stars will be displayed below

Code

gi_stars

# A tibble: 5,160 × 14
# Groups:   week [20]
   VILLCODE     week cases                  geometry nb    wt    gi_star    e_gi
   <chr>       <int> <int>            <GEOMETRY [°]> <lis> <lis>   <dbl>   <dbl>
 1 67000350032    31     0  GEOMETRYCOLLECTION EMPTY <int> <dbl>  -0.815 0.00232
 2 67000270011    31     1 POINT (120.2413 22.92115) <int> <dbl>   0.281 0.00375
 3 67000370005    31     0  GEOMETRYCOLLECTION EMPTY <int> <dbl>  -0.463 0.00305
 4 67000330004    31     0  GEOMETRYCOLLECTION EMPTY <int> <dbl>  -0.256 0.00293
 5 67000350028    31     0  GEOMETRYCOLLECTION EMPTY <int> <dbl>  -0.895 0.00278
 6 67000350030    31     0  GEOMETRYCOLLECTION EMPTY <int> <dbl>  -1.10  0.00306
 7 67000370009    31     0  GEOMETRYCOLLECTION EMPTY <int> <dbl>  -0.895 0.00263
 8 67000350017    31     0  GEOMETRYCOLLECTION EMPTY <int> <dbl>  -0.745 0.00310
 9 67000350049    31     0  GEOMETRYCOLLECTION EMPTY <int> <dbl>   0.420 0.00296
10 67000350018    31     0  GEOMETRYCOLLECTION EMPTY <int> <dbl>  -0.907 0.00301
# ℹ 5,150 more rows
# ℹ 6 more variables: var_gi <dbl>, p_value <dbl>, p_sim <dbl>,
#   p_folded_sim <dbl>, skewness <dbl>, kurtosis <dbl>
…
